{
    "componentChunkName": "component---node-modules-gatsby-theme-buzzing-src-gatsby-theme-timeline-templates-posts-query-js",
    "path": "/zh-Hant/page/40",
    "result": {"data":{"site":{"siteMetadata":{"title":"Hacker News 热门","author":"Hacker News","description":"用中文浏览 Hacker News 热门内容 - 中国 Hacker News","keywords":["Hacker News","中国 Hacker News","Hacker News 热门","互联网热门","科技"],"siteUrl":"https://hn.buzzing.cc","telegram":"@buzzingcc","iconUrl":"https://hn.buzzing.cc/avatar.png","defaultSocialImageUrl":null,"social":[{"name":"Hacker News","url":"https://news.ycombinator.com/","external":true},{"name":"Buzzing","url":"https://www.buzzing.cc/","external":true}],"menuLinks":[{"name":"每周精选","url":"/issues","external":null}],"disqus":null,"utterances":null,"localize":[{"title":"Buzzing on Hacker News","description":"See what's buzzing on Hacker News in your native language","keywords":["Hacker News","HN","buzzing"],"locale":"en","social":{"name":null,"url":null,"external":null},"menuLinks":[{"name":"Weekly Selection","url":"/en/issues","external":null}]},{"title":"Hacker News 熱門","description":"用中文瀏覽 Hacker News 熱門內容","keywords":["Hacker News","HN","Hacker News 熱門","互聯網熱門","科技"],"locale":"zh-Hant","social":null,"menuLinks":[{"name":"每週精選","url":"/zh-Hant/issues","external":null}]},{"title":"Hacker News  人気の記事","description":"人気のHacker News記事を日本語で閲覧","keywords":["buzzing","Hacker News "],"locale":"ja","social":null,"menuLinks":[{"name":"毎週の選択","url":"/ja/issues","external":null}]}]}},"tagsGroup":{"group":[{"fieldValue":"ASK HN","totalCount":47},{"fieldValue":"Hacker News","totalCount":1959},{"fieldValue":"Show HN","totalCount":54},{"fieldValue":"story","totalCount":1959}]},"allBlogPost":{"nodes":[{"id":"HnPost-28715110","excerpt":"","slug":"/hn/28715110","title":"Ocean drone captures video from inside a hurricane","date":"October 01, 2021","dateISO":"2021-10-01T09:52:40.632Z","datetime":"2021-10-01 09:52","tags":["story","Hacker News"],"image":null,"imageAlt":null,"__typename":"SocialMediaPost","provider":"Hacker News","thirdPartyId":"28715110","url":"https://news.ycombinator.com/item?id=28715110","originalUrl":"http://www.noaa.gov/news-release/world-first-ocean-drone-captures-video-from-inside-hurricane","imageRemote":"https://www.noaa.gov/sites/default/files/styles/landscape_width_1275/public/2021-06/60b662838cf986117e63544d_Saildrone_hurricane_wing_SD_1048_(6)_resize_credit.png?h=f692311e&itok=K4Epub8S","video":null,"channel":null,"channelUrl":null,"author":"duck","authorUrl":"https://news.ycombinator.com/user?id=duck","authorImageRemote":null,"authorImage":null,"authorSlug":null,"score":708,"views":null,"sharedCount":null,"likeCount":null,"sharedContent":null,"parent":{"localize":[{"title":"海洋ドローンがハリケーンの中から映像を撮影","locale":"ja"},{"title":"海洋无人机在飓风中捕捉到的视频","locale":"zh"},{"title":"海洋無人機在颶風中捕捉到的視頻","locale":"zh-Hant"}]}},{"id":"HnPost-28712821","excerpt":"","slug":"/hn/28712821","title":"Ruby removed “Participants will be tolerant of opposing views” from its CoC","date":"October 01, 2021","dateISO":"2021-10-01T09:00:53.796Z","datetime":"2021-10-01 09:00","tags":["story","Hacker News"],"image":null,"imageAlt":null,"__typename":"SocialMediaPost","provider":"Hacker News","thirdPartyId":"28712821","url":"https://news.ycombinator.com/item?id=28712821","originalUrl":"https://github.com/ruby/www.ruby-lang.org/pull/2690","imageRemote":"https://opengraph.githubassets.com/4530c1357e30541ee40c2d877e0300515c2bfc7afd770dbe7a3fa63d48f48725/ruby/www.ruby-lang.org/pull/2690","video":null,"channel":null,"channelUrl":null,"author":"morpunkee","authorUrl":"https://news.ycombinator.com/user?id=morpunkee","authorImageRemote":null,"authorImage":null,"authorSlug":null,"score":382,"views":null,"sharedCount":null,"likeCount":null,"sharedContent":null,"parent":{"localize":[{"title":"ルビーは、CoCから「参加者は反対意見に寛容である」を削除しました。","locale":"ja"},{"title":"红宝石公司从其CoC中删除了 \"参与者将对反对意见持宽容态度\"。","locale":"zh"},{"title":"紅寶石公司從其CoC中刪除了 \"參與者將對反對意見持寬容態度\"。","locale":"zh-Hant"}]}},{"id":"HnPost-28707382","excerpt":"","slug":"/hn/28707382","title":"The Great AI Reckoning","date":"October 01, 2021","dateISO":"2021-10-01T06:49:53.369Z","datetime":"2021-10-01 06:49","tags":["story","Hacker News"],"image":null,"imageAlt":null,"__typename":"SocialMediaPost","provider":"Hacker News","thirdPartyId":"28707382","url":"https://news.ycombinator.com/item?id=28707382","originalUrl":"https://spectrum.ieee.org/special-reports/the-great-ai-reckoning/","imageRemote":"https://assets.rebelmouse.io/eyJhbGciOiJIUzI1NiIsInR5cCI6IkpXVCJ9.eyJpbWFnZSI6Imh0dHBzOi8vYXNzZXRzLnJibC5tcy8yNzUwODkyNi9vcmlnaW4uanBnIiwiZXhwaXJlc19hdCI6MTY0NDM1MDc1NX0.A4z0dlPdKb1GEwgnM1yeHaqmvNYAg63clE25UjLgmGI/img.jpg","video":null,"channel":null,"channelUrl":null,"author":"doener","authorUrl":"https://news.ycombinator.com/user?id=doener","authorImageRemote":null,"authorImage":null,"authorSlug":null,"score":146,"views":null,"sharedCount":null,"likeCount":null,"sharedContent":null,"parent":{"localize":[{"title":"AIの大いなる再認識","locale":"ja"},{"title":"人工智能的大清算","locale":"zh"},{"title":"人工智能的大清算","locale":"zh-Hant"}]}},{"id":"HnPost-28710629","excerpt":"","slug":"/hn/28710629","title":"Enabling IPv6 Support for GitHub Pages","date":"October 01, 2021","dateISO":"2021-10-01T06:28:27.803Z","datetime":"2021-10-01 06:28","tags":["story","Hacker News"],"image":null,"imageAlt":null,"__typename":"SocialMediaPost","provider":"Hacker News","thirdPartyId":"28710629","url":"https://news.ycombinator.com/item?id=28710629","originalUrl":"https://github.blog/changelog/2021-09-30-enabling-ipv6-support-for-github-pages/","imageRemote":"https://github.blog/wp-content/uploads/2019/03/blog-card.png?fit=5001%2C2626","video":null,"channel":null,"channelUrl":null,"author":"Zdh4DYsGvdjJ","authorUrl":"https://news.ycombinator.com/user?id=Zdh4DYsGvdjJ","authorImageRemote":null,"authorImage":null,"authorSlug":null,"score":183,"views":null,"sharedCount":null,"likeCount":null,"sharedContent":null,"parent":{"localize":[{"title":"GitHubページのIPv6サポートを有効にする","locale":"ja"},{"title":"为GitHub页面启用IPv6支持","locale":"zh"},{"title":"爲GitHub頁面啓用IPv6支持","locale":"zh-Hant"}]}},{"id":"HnPost-28710179","excerpt":"","slug":"/hn/28710179","title":"AWS Cloud Control API, a Uniform API to Access AWS and Third-Party Services","date":"October 01, 2021","dateISO":"2021-10-01T05:21:24.978Z","datetime":"2021-10-01 05:21","tags":["story","Hacker News"],"image":null,"imageAlt":null,"__typename":"SocialMediaPost","provider":"Hacker News","thirdPartyId":"28710179","url":"https://news.ycombinator.com/item?id=28710179","originalUrl":"https://aws.amazon.com/blogs/aws/announcing-aws-cloud-control-api/","imageRemote":"https://d2908q01vomqb2.cloudfront.net/da4b9237bacccdf19c0760cab7aec4a8359010b0/2021/09/13/Site-Merch_AWS-Cloud-Control-API_Blog.png","video":null,"channel":null,"channelUrl":null,"author":"lukehoban","authorUrl":"https://news.ycombinator.com/user?id=lukehoban","authorImageRemote":null,"authorImage":null,"authorSlug":null,"score":179,"views":null,"sharedCount":null,"likeCount":null,"sharedContent":null,"parent":{"localize":[{"title":"AWSとサードパーティのサービスにアクセスするための統一API「AWS Cloud Control API","locale":"ja"},{"title":"AWS云控制API，一个访问AWS和第三方服务的统一的API","locale":"zh"},{"title":"AWS雲控制API，一個訪問AWS和第三方服務的統一的API","locale":"zh-Hant"}]}},{"id":"HnPost-28709886","excerpt":"","slug":"/hn/28709886","title":"SpiceDB Is Open Source","date":"October 01, 2021","dateISO":"2021-10-01T03:53:29.068Z","datetime":"2021-10-01 03:53","tags":["story","Hacker News"],"image":null,"imageAlt":null,"__typename":"SocialMediaPost","provider":"Hacker News","thirdPartyId":"28709886","url":"https://news.ycombinator.com/item?id=28709886","originalUrl":"https://authzed.com/blog/spicedb-is-open-source/","imageRemote":"https://authzed.com","video":null,"channel":null,"channelUrl":null,"author":"jzelinskie","authorUrl":"https://news.ycombinator.com/user?id=jzelinskie","authorImageRemote":null,"authorImage":null,"authorSlug":null,"score":196,"views":null,"sharedCount":null,"likeCount":null,"sharedContent":null,"parent":{"localize":[{"title":"SpiceDBはオープンソースです。","locale":"ja"},{"title":"SpiceDB是开源的","locale":"zh"},{"title":"SpiceDB是開源的","locale":"zh-Hant"}]}},{"id":"HnPost-28713249","excerpt":"","slug":"/hn/28713249","title":"NFT Projects Are Just MLMs for Tech Elites","date":"October 01, 2021","dateISO":"2021-10-01T03:53:29.068Z","datetime":"2021-10-01 03:53","tags":["story","Hacker News"],"image":null,"imageAlt":null,"__typename":"SocialMediaPost","provider":"Hacker News","thirdPartyId":"28713249","url":"https://news.ycombinator.com/item?id=28713249","originalUrl":"https://every.to/napkin-math/nft-projects-are-just-mlms-for-tech-elites","imageRemote":"https://d24ovhgu8s7341.cloudfront.net/uploads/post/cover/1884/napkin_math.jpeg","video":null,"channel":null,"channelUrl":null,"author":"dtjb","authorUrl":"https://news.ycombinator.com/user?id=dtjb","authorImageRemote":null,"authorImage":null,"authorSlug":null,"score":816,"views":null,"sharedCount":null,"likeCount":null,"sharedContent":null,"parent":{"localize":[{"title":"NFTプロジェクトは技術系エリートのためのMLMに過ぎない","locale":"ja"},{"title":"NFT项目只是科技精英们的传销组织","locale":"zh"},{"title":"NFT項目只是科技精英們的傳銷組織","locale":"zh-Hant"}]}},{"id":"HnPost-28708078","excerpt":"","slug":"/hn/28708078","title":"Things Unlearned","date":"October 01, 2021","dateISO":"2021-10-01T02:58:27.598Z","datetime":"2021-10-01 02:58","tags":["story","Hacker News"],"image":null,"imageAlt":null,"__typename":"SocialMediaPost","provider":"Hacker News","thirdPartyId":"28708078","url":"https://news.ycombinator.com/item?id=28708078","originalUrl":"https://scattered-thoughts.net/writing/things-unlearned/","imageRemote":null,"video":null,"channel":null,"channelUrl":null,"author":"lycopodiopsida","authorUrl":"https://news.ycombinator.com/user?id=lycopodiopsida","authorImageRemote":null,"authorImage":null,"authorSlug":null,"score":192,"views":null,"sharedCount":null,"likeCount":null,"sharedContent":null,"parent":{"localize":[{"title":"学ばなかったこと","locale":"ja"},{"title":"未学过的东西","locale":"zh"},{"title":"未學過的東西","locale":"zh-Hant"}]}},{"id":"HnPost-28712350","excerpt":"","slug":"/hn/28712350","title":"Deaf Man Who Couldn't Hear Police Commands Was Tased and Spent 4 Months in Jail","date":"October 01, 2021","dateISO":"2021-10-01T02:16:04.436Z","datetime":"2021-10-01 02:16","tags":["story","Hacker News"],"image":null,"imageAlt":null,"__typename":"SocialMediaPost","provider":"Hacker News","thirdPartyId":"28712350","url":"https://news.ycombinator.com/item?id=28712350","originalUrl":"https://www.npr.org/2021/09/29/1041562502/deaf-man-tased-police-colorado-lawsuit","imageRemote":"https://media.npr.org/assets/img/2021/09/29/brady-mistic---1_wide-855fd9cf37f4de4fdf854ba1e41c0daa3d9ce469.png?s=1400","video":null,"channel":null,"channelUrl":null,"author":"amin","authorUrl":"https://news.ycombinator.com/user?id=amin","authorImageRemote":null,"authorImage":null,"authorSlug":null,"score":258,"views":null,"sharedCount":null,"likeCount":null,"sharedContent":null,"parent":{"localize":[{"title":"警察の指示が聞こえない聴覚障害者がテーザー銃で撃たれ、4ヶ月間刑務所で過ごしました。","locale":"ja"},{"title":"听不到警察指令的聋哑人被电击，在监狱里待了4个月","locale":"zh"},{"title":"聽不到警察指令的聾啞人被電擊，在監獄裏待了4個月","locale":"zh-Hant"}]}}]}},"pageContext":{"basePath":"/","pageType":"home","tagsFilter":{"date":{"gt":"2000-12-25T10:54:58.000Z"}},"filter":{"date":{"gt":"2000-12-25T10:54:58.000Z"}},"limit":50,"skip":1950,"totalPages":40,"total":1959,"currentPage":40,"maxWidth":1024,"maxHeight":512,"siteMetadata":null,"locale":"zh-Hant","hrefLang":"zh-Hant","originalPath":"/page/40","dateFormat":"YYYY-MM-DD"}},
    "staticQueryHashes": ["1239077767","2744905544","3025052997","3280999885"]}