{
    "componentChunkName": "component---node-modules-gatsby-theme-buzzing-src-gatsby-theme-timeline-templates-posts-query-js",
    "path": "/zh-Hant/tags/story/page/20",
    "result": {"data":{"site":{"siteMetadata":{"title":"Hacker News 热门","author":"Hacker News","description":"用中文浏览 Hacker News 热门内容 - 中国 Hacker News","keywords":["Hacker News","中国 Hacker News","Hacker News 热门","互联网热门","科技"],"siteUrl":"https://hn.buzzing.cc","telegram":"@buzzingcc","iconUrl":"https://hn.buzzing.cc/avatar.png","defaultSocialImageUrl":null,"social":[{"name":"Hacker News","url":"https://news.ycombinator.com/","external":true},{"name":"Buzzing","url":"https://www.buzzing.cc/","external":true}],"menuLinks":[{"name":"每周精选","url":"/issues","external":null}],"disqus":null,"utterances":null,"localize":[{"title":"Buzzing on Hacker News","description":"See what's buzzing on Hacker News in your native language","keywords":["Hacker News","HN","buzzing"],"locale":"en","social":{"name":null,"url":null,"external":null},"menuLinks":[{"name":"Weekly Selection","url":"/en/issues","external":null}]},{"title":"Hacker News 熱門","description":"用中文瀏覽 Hacker News 熱門內容","keywords":["Hacker News","HN","Hacker News 熱門","互聯網熱門","科技"],"locale":"zh-Hant","social":null,"menuLinks":[{"name":"每週精選","url":"/zh-Hant/issues","external":null}]},{"title":"Hacker News  人気の記事","description":"人気のHacker News記事を日本語で閲覧","keywords":["buzzing","Hacker News "],"locale":"ja","social":null,"menuLinks":[{"name":"毎週の選択","url":"/ja/issues","external":null}]}]}},"tagsGroup":{"group":[{"fieldValue":"ASK HN","totalCount":148},{"fieldValue":"Hacker News","totalCount":9520},{"fieldValue":"Poll","totalCount":1},{"fieldValue":"Show HN","totalCount":275},{"fieldValue":"poll","totalCount":1},{"fieldValue":"story","totalCount":9519}]},"allBlogPost":{"nodes":[{"id":"HnPost-25445925","excerpt":"","slug":"/hn/25445925","title":"GTK 4.0 Released","date":"December 17, 2020","dateISO":"2020-12-17T12:17:48.070Z","datetime":"2020-12-17 12:17","tags":["story","Hacker News"],"image":null,"imageAlt":null,"__typename":"SocialMediaPost","provider":"Hacker News","thirdPartyId":"25445925","url":"https://news.ycombinator.com/item?id=25445925","originalUrl":"https://blog.gtk.org/2020/12/16/gtk-4-0/","imageRemote":"https://blog.gtk.org/files/2020/12/photo_2020-12-15_15-36-29-1200x675.jpg","video":null,"channel":null,"channelUrl":null,"author":"hernantz","authorUrl":"https://news.ycombinator.com/user?id=hernantz","authorImageRemote":null,"authorImage":null,"authorSlug":null,"score":265,"views":null,"sharedCount":null,"likeCount":null,"sharedContent":null,"parent":{"localize":[{"title":"GTK 4.0发布","locale":"zh"},{"title":"GTK 4.0發佈","locale":"zh-Hant"}]}},{"id":"HnPost-25446399","excerpt":"","slug":"/hn/25446399","title":"A Beginner's Garden of Chess Openings (2002)","date":"December 17, 2020","dateISO":"2020-12-17T12:17:48.070Z","datetime":"2020-12-17 12:17","tags":["story","Hacker News"],"image":null,"imageAlt":null,"__typename":"SocialMediaPost","provider":"Hacker News","thirdPartyId":"25446399","url":"https://news.ycombinator.com/item?id=25446399","originalUrl":"https://dwheeler.com/chess-openings/","imageRemote":"https://dwheeler.com/chess-openings/ruy.png","video":null,"channel":null,"channelUrl":null,"author":"elgfare","authorUrl":"https://news.ycombinator.com/user?id=elgfare","authorImageRemote":null,"authorImage":null,"authorSlug":null,"score":304,"views":null,"sharedCount":null,"likeCount":null,"sharedContent":null,"parent":{"localize":[{"title":"初学者的国际象棋开局花园(2002)","locale":"zh"},{"title":"初學者的國際象棋開局花園(2002)","locale":"zh-Hant"}]}},{"id":"HnPost-25446608","excerpt":"","slug":"/hn/25446608","title":"State of Rust Survey 2020 results","date":"December 17, 2020","dateISO":"2020-12-17T12:17:48.070Z","datetime":"2020-12-17 12:17","tags":["story","Hacker News"],"image":null,"imageAlt":null,"__typename":"SocialMediaPost","provider":"Hacker News","thirdPartyId":"25446608","url":"https://news.ycombinator.com/item?id=25446608","originalUrl":"https://blog.rust-lang.org/2020/12/16/rust-survey-2020.html","imageRemote":"https://www.rust-lang.org/static/images/rust-social-wide.jpg","video":null,"channel":null,"channelUrl":null,"author":"steveklabnik","authorUrl":"https://news.ycombinator.com/user?id=steveklabnik","authorImageRemote":null,"authorImage":null,"authorSlug":null,"score":191,"views":null,"sharedCount":null,"likeCount":null,"sharedContent":null,"parent":{"localize":[{"title":"2020年锈蚀状况调查结果","locale":"zh"},{"title":"2020年鏽蝕狀況調查結果","locale":"zh-Hant"}]}},{"id":"HnPost-25446689","excerpt":"","slug":"/hn/25446689","title":"January 1, 2021 is Public Domain Day: Works from 1925 are open to all","date":"December 17, 2020","dateISO":"2020-12-17T12:17:48.070Z","datetime":"2020-12-17 12:17","tags":["story","Hacker News"],"image":null,"imageAlt":null,"__typename":"SocialMediaPost","provider":"Hacker News","thirdPartyId":"25446689","url":"https://news.ycombinator.com/item?id=25446689","originalUrl":"https://web.law.duke.edu/cspd/publicdomainday/2021/","imageRemote":"https://law.duke.edu/sites/default/files/images/centers/cspd/pdd2019/1923_montage.jpg","video":null,"channel":null,"channelUrl":null,"author":"samizdis","authorUrl":"https://news.ycombinator.com/user?id=samizdis","authorImageRemote":null,"authorImage":null,"authorSlug":null,"score":125,"views":null,"sharedCount":null,"likeCount":null,"sharedContent":null,"parent":{"localize":[{"title":"2021年1月1日是公共领域日：1925年的作品向所有人开放","locale":"zh"},{"title":"2021年1月1日是公共領域日：1925年的作品向所有人開放","locale":"zh-Hant"}]}},{"id":"HnPost-25447153","excerpt":"","slug":"/hn/25447153","title":"Tech Preview of Docker Desktop for M1","date":"December 17, 2020","dateISO":"2020-12-17T12:17:48.070Z","datetime":"2020-12-17 12:17","tags":["story","Hacker News"],"image":null,"imageAlt":null,"__typename":"SocialMediaPost","provider":"Hacker News","thirdPartyId":"25447153","url":"https://news.ycombinator.com/item?id=25447153","originalUrl":"https://www.docker.com/blog/download-and-try-the-tech-preview-of-docker-desktop-for-m1/","imageRemote":"https://lh4.googleusercontent.com/9_z8b72EjrIQlyFpSYM3lIZi7xgmIkMFeWMwtiP5p6XA0hf5JTP49SQGVeRq6YC7XEHeqVFG7UsMxAxGvsa6Cu8LEPxCRHP3wRR_nr0TFtrKqhWgEAhrz8UClk81TuTZ3C2zgihC","video":null,"channel":null,"channelUrl":null,"author":"jcollins","authorUrl":"https://news.ycombinator.com/user?id=jcollins","authorImageRemote":null,"authorImage":null,"authorSlug":null,"score":274,"views":null,"sharedCount":null,"likeCount":null,"sharedContent":null,"parent":{"localize":[{"title":"Docker Desktop for M1技术预览","locale":"zh"},{"title":"Docker Desktop for M1技術預覽","locale":"zh-Hant"}]}},{"id":"HnPost-25447710","excerpt":"","slug":"/hn/25447710","title":"Building a $400 at-home DIY spin bike for Peloton and Apple Fitness+","date":"December 17, 2020","dateISO":"2020-12-17T12:17:48.070Z","datetime":"2020-12-17 12:17","tags":["story","Hacker News"],"image":null,"imageAlt":null,"__typename":"SocialMediaPost","provider":"Hacker News","thirdPartyId":"25447710","url":"https://news.ycombinator.com/item?id=25447710","originalUrl":"https://montemagno.com/building-an-at-home-diy-spin-bike-for-peloton-apple-fitness/","imageRemote":"https://montemagno.com/content/images/2020/12/IMG_1194---Copy.jpg","video":null,"channel":null,"channelUrl":null,"author":"rchaudhary","authorUrl":"https://news.ycombinator.com/user?id=rchaudhary","authorImageRemote":null,"authorImage":null,"authorSlug":null,"score":122,"views":null,"sharedCount":null,"likeCount":null,"sharedContent":null,"parent":{"localize":[{"title":"为peloton和Apple Fitness+打造一辆价值400美元的家庭DIY旋转自行车","locale":"zh"},{"title":"爲peloton和Apple Fitness+打造一輛價值400美元的家庭DIY旋轉自行車","locale":"zh-Hant"}]}},{"id":"HnPost-25447805","excerpt":"","slug":"/hn/25447805","title":"WireGuard Bounce Server Setup","date":"December 17, 2020","dateISO":"2020-12-17T12:17:48.070Z","datetime":"2020-12-17 12:17","tags":["story","Hacker News"],"image":null,"imageAlt":null,"__typename":"SocialMediaPost","provider":"Hacker News","thirdPartyId":"25447805","url":"https://news.ycombinator.com/item?id=25447805","originalUrl":"https://gitlab.com/ncmncm/wireguard-bounce-server/-/blob/master/README.md","imageRemote":"https://assets.gitlab-static.net/assets/gitlab_logo-7ae504fe4f68fdebb3c2034e36621930cd36ea87924c11ff65dbcb8ed50dca58.png","video":null,"channel":null,"channelUrl":null,"author":"ncmncm","authorUrl":"https://news.ycombinator.com/user?id=ncmncm","authorImageRemote":null,"authorImage":null,"authorSlug":null,"score":123,"views":null,"sharedCount":null,"likeCount":null,"sharedContent":null,"parent":{"localize":[{"title":"WireGuard退回服务器设置","locale":"zh"},{"title":"WireGuard退回服務器設置","locale":"zh-Hant"}]}},{"id":"HnPost-25447830","excerpt":"","slug":"/hn/25447830","title":"Preview in macOS Big Sur is destroying PDFs","date":"December 17, 2020","dateISO":"2020-12-17T12:17:48.070Z","datetime":"2020-12-17 12:17","tags":["story","Hacker News"],"image":null,"imageAlt":null,"__typename":"SocialMediaPost","provider":"Hacker News","thirdPartyId":"25447830","url":"https://news.ycombinator.com/item?id=25447830","originalUrl":"https://annoying.technology/posts/86f4ea27e4cd90d0/","imageRemote":"https://annoying.technology/media/previeweatingpdfs.png","video":null,"channel":null,"channelUrl":null,"author":"matrixagent","authorUrl":"https://news.ycombinator.com/user?id=matrixagent","authorImageRemote":null,"authorImage":null,"authorSlug":null,"score":358,"views":null,"sharedCount":null,"likeCount":null,"sharedContent":null,"parent":{"localize":[{"title":"MacOS中的预览Big Sur正在破坏PDF","locale":"zh"},{"title":"MacOS中的預覽Big Sur正在破壞PDF","locale":"zh-Hant"}]}},{"id":"HnPost-25448425","excerpt":"","slug":"/hn/25448425","title":"Covid-19 is 10 times deadlier for people with Down syndrome","date":"December 17, 2020","dateISO":"2020-12-17T12:17:48.070Z","datetime":"2020-12-17 12:17","tags":["story","Hacker News"],"image":null,"imageAlt":null,"__typename":"SocialMediaPost","provider":"Hacker News","thirdPartyId":"25448425","url":"https://news.ycombinator.com/item?id=25448425","originalUrl":"https://www.sciencemag.org/news/2020/12/covid-19-10-times-deadlier-people-down-syndrome-raising-calls-early-vaccination","imageRemote":"https://www.sciencemag.org/sites/default/files/styles/article_main_large/public/AmandaRoss121520.jpg?itok=PqXE57Gv","video":null,"channel":null,"channelUrl":null,"author":"rbanffy","authorUrl":"https://news.ycombinator.com/user?id=rbanffy","authorImageRemote":null,"authorImage":null,"authorSlug":null,"score":106,"views":null,"sharedCount":null,"likeCount":null,"sharedContent":null,"parent":{"localize":[{"title":"冠状病毒对唐氏综合征患者的致死率是后者的10倍","locale":"zh"},{"title":"冠狀病毒對唐氏綜合徵患者的致死率是後者的10倍","locale":"zh-Hant"}]}},{"id":"HnPost-25448533","excerpt":"","slug":"/hn/25448533","title":"Sequoia PGP 1.0 Released: The Seedling Is a Sapling","date":"December 17, 2020","dateISO":"2020-12-17T12:17:48.070Z","datetime":"2020-12-17 12:17","tags":["story","Hacker News"],"image":null,"imageAlt":null,"__typename":"SocialMediaPost","provider":"Hacker News","thirdPartyId":"25448533","url":"https://news.ycombinator.com/item?id=25448533","originalUrl":"https://sequoia-pgp.org/blog/2020/12/16/202012-1.0/","imageRemote":"https://sequoia-pgp.org/blog/2020/12/16/202012-1.0/img/navbar-logo.svg","video":null,"channel":null,"channelUrl":null,"author":"dannyobrien","authorUrl":"https://news.ycombinator.com/user?id=dannyobrien","authorImageRemote":null,"authorImage":null,"authorSlug":null,"score":156,"views":null,"sharedCount":null,"likeCount":null,"sharedContent":null,"parent":{"localize":[{"title":"红杉PGP 1.0发布：幼苗是树苗","locale":"zh"},{"title":"紅杉PGP 1.0發佈：幼苗是樹苗","locale":"zh-Hant"}]}},{"id":"HnPost-25448718","excerpt":"","slug":"/hn/25448718","title":"States bring action against Google under federal and state antitrust laws [pdf]","date":"December 17, 2020","dateISO":"2020-12-17T12:17:48.070Z","datetime":"2020-12-17 12:17","tags":["story","Hacker News"],"image":null,"imageAlt":null,"__typename":"SocialMediaPost","provider":"Hacker News","thirdPartyId":"25448718","url":"https://news.ycombinator.com/item?id=25448718","originalUrl":"https://www.texasattorneygeneral.gov/sites/default/files/images/admin/2020/Press/20201216%20COMPLAINT_REDACTED.pdf","imageRemote":null,"video":null,"channel":null,"channelUrl":null,"author":"pondsider","authorUrl":"https://news.ycombinator.com/user?id=pondsider","authorImageRemote":null,"authorImage":null,"authorSlug":null,"score":860,"views":null,"sharedCount":null,"likeCount":null,"sharedContent":null,"parent":{"localize":[{"title":"各州根据联邦和州反垄断法对谷歌提起诉讼[pdf]","locale":"zh"},{"title":"各州根據聯邦和州反壟斷法對谷歌提起訴訟[pdf]","locale":"zh-Hant"}]}},{"id":"HnPost-25450133","excerpt":"","slug":"/hn/25450133","title":"Google, Facebook Had Illegal Deal to Rig Ad Market","date":"December 17, 2020","dateISO":"2020-12-17T12:17:48.070Z","datetime":"2020-12-17 12:17","tags":["story","Hacker News"],"image":null,"imageAlt":null,"__typename":"SocialMediaPost","provider":"Hacker News","thirdPartyId":"25450133","url":"https://news.ycombinator.com/item?id=25450133","originalUrl":"https://www.bloomberg.com/news/articles/2020-12-16/google-sued-by-texas-over-abuse-of-dominance-in-antitrust-case","imageRemote":null,"video":null,"channel":null,"channelUrl":null,"author":"akashshah87","authorUrl":"https://news.ycombinator.com/user?id=akashshah87","authorImageRemote":null,"authorImage":null,"authorSlug":null,"score":207,"views":null,"sharedCount":null,"likeCount":null,"sharedContent":null,"parent":{"localize":[{"title":"谷歌和Facebook达成非法交易操纵广告市场","locale":"zh"},{"title":"谷歌和Facebook達成非法交易操縱廣告市場","locale":"zh-Hant"}]}},{"id":"HnPost-25450477","excerpt":"","slug":"/hn/25450477","title":"LiquidPiston's “inside-out” rotary X-Engine wins Army research contract","date":"December 17, 2020","dateISO":"2020-12-17T12:17:48.070Z","datetime":"2020-12-17 12:17","tags":["story","Hacker News"],"image":null,"imageAlt":null,"__typename":"SocialMediaPost","provider":"Hacker News","thirdPartyId":"25450477","url":"https://news.ycombinator.com/item?id=25450477","originalUrl":"https://newatlas.com/military/liquidpiston-rotary-x-engine-army-generator/","imageRemote":"https://assets.newatlas.com/dims4/default/6f21051/2147483647/strip/true/crop/4626x2429+0+410/resize/1200x630!/quality/90/?url=http%3A%2F%2Fnewatlas-brightspot.s3.amazonaws.com%2F52%2F9a%2F0e220e4b4284adecd859c82ca6e3%2Fx-mini-two-angles.jpg","video":null,"channel":null,"channelUrl":null,"author":"dgudkov","authorUrl":"https://news.ycombinator.com/user?id=dgudkov","authorImageRemote":null,"authorImage":null,"authorSlug":null,"score":278,"views":null,"sharedCount":null,"likeCount":null,"sharedContent":null,"parent":{"localize":[{"title":"LiquidPiston的“内向外”旋转式X-Engine赢得陆军研究合同","locale":"zh"},{"title":"LiquidPiston的“內向外”旋轉式X-Engine贏得陸軍研究合同","locale":"zh-Hant"}]}},{"id":"HnPost-25450599","excerpt":"","slug":"/hn/25450599","title":"You have the right to record police in public, federal court rules","date":"December 17, 2020","dateISO":"2020-12-17T12:17:48.070Z","datetime":"2020-12-17 12:17","tags":["story","Hacker News"],"image":null,"imageAlt":null,"__typename":"SocialMediaPost","provider":"Hacker News","thirdPartyId":"25450599","url":"https://news.ycombinator.com/item?id=25450599","originalUrl":"https://www.universalhub.com/2020/you-have-right-secretly-record-police-public","imageRemote":"https://www.universalhub.com/images/alogosmall.png","video":null,"channel":null,"channelUrl":null,"author":"ilamont","authorUrl":"https://news.ycombinator.com/user?id=ilamont","authorImageRemote":null,"authorImage":null,"authorSlug":null,"score":333,"views":null,"sharedCount":null,"likeCount":null,"sharedContent":null,"parent":{"localize":[{"title":"你有权在公共场合记录警察，这是联邦法院的规定","locale":"zh"},{"title":"你有權在公共場合記錄警察，這是聯邦法院的規定","locale":"zh-Hant"}]}},{"id":"HnPost-25450878","excerpt":"","slug":"/hn/25450878","title":"Flanderization","date":"December 17, 2020","dateISO":"2020-12-17T12:17:14.385Z","datetime":"2020-12-17 12:17","tags":["story","Hacker News"],"image":null,"imageAlt":null,"__typename":"SocialMediaPost","provider":"Hacker News","thirdPartyId":"25450878","url":"https://news.ycombinator.com/item?id=25450878","originalUrl":"https://tvtropes.org/pmwiki/pmwiki.php/Main/Flanderization","imageRemote":"https://static.tvtropes.org/pmwiki/pub/images/flanderization_transparent.png","video":null,"channel":null,"channelUrl":null,"author":"doener","authorUrl":"https://news.ycombinator.com/user?id=doener","authorImageRemote":null,"authorImage":null,"authorSlug":null,"score":159,"views":null,"sharedCount":null,"likeCount":null,"sharedContent":null,"parent":{"localize":[{"title":"花样化","locale":"zh"},{"title":"花樣化","locale":"zh-Hant"}]}},{"id":"HnPost-25451531","excerpt":"","slug":"/hn/25451531","title":"Trump Is Considering Clemency for Silk Road Founder","date":"December 17, 2020","dateISO":"2020-12-17T12:17:14.385Z","datetime":"2020-12-17 12:17","tags":["story","Hacker News"],"image":null,"imageAlt":null,"__typename":"SocialMediaPost","provider":"Hacker News","thirdPartyId":"25451531","url":"https://news.ycombinator.com/item?id=25451531","originalUrl":"https://www.thedailybeast.com/trump-considers-clemency-for-ross-ulbricht-silk-road-kingpin-convicted-of-drug-and-money-laundering-charges","imageRemote":"https://img.thedailybeast.com/image/upload/c_crop,d_placeholder_euli9k,h_675,w_1200,x_0,y_0/dpr_2.0/c_limit,w_740/fl_lossy,q_auto/v1608078987/201215-ross-ulbricht-tease_iivamm","video":null,"channel":null,"channelUrl":null,"author":"danso","authorUrl":"https://news.ycombinator.com/user?id=danso","authorImageRemote":null,"authorImage":null,"authorSlug":null,"score":200,"views":null,"sharedCount":null,"likeCount":null,"sharedContent":null,"parent":{"localize":[{"title":"特朗普正在考虑宽大处理丝绸之路创始人","locale":"zh"},{"title":"特朗普正在考慮寬大處理絲綢之路創始人","locale":"zh-Hant"}]}},{"id":"HnPost-25452405","excerpt":"","slug":"/hn/25452405","title":"SolarWinds’ shares drop 22 per cent. But what’s this? $286M in stock sales","date":"December 17, 2020","dateISO":"2020-12-17T12:17:14.385Z","datetime":"2020-12-17 12:17","tags":["story","Hacker News"],"image":null,"imageAlt":null,"__typename":"SocialMediaPost","provider":"Hacker News","thirdPartyId":"25452405","url":"https://news.ycombinator.com/item?id=25452405","originalUrl":"https://www.theregister.com/2020/12/16/solarwinds_stock_sale/","imageRemote":"https://regmedia.co.uk/2020/12/16/shuttestock_solarwinds.jpg","video":null,"channel":null,"channelUrl":null,"author":"wglb","authorUrl":"https://news.ycombinator.com/user?id=wglb","authorImageRemote":null,"authorImage":null,"authorSlug":null,"score":192,"views":null,"sharedCount":null,"likeCount":null,"sharedContent":null,"parent":{"localize":[{"title":"SolarWinds股价下跌22%。但这是什么？2.86亿美元的股票销售","locale":"zh"},{"title":"SolarWinds股價下跌22%。但這是什麼？2.86億美元的股票銷售","locale":"zh-Hant"}]}},{"id":"HnPost-25452435","excerpt":"","slug":"/hn/25452435","title":"Transmits AM radio on computers without radio transmitting hardware","date":"December 17, 2020","dateISO":"2020-12-17T12:17:14.385Z","datetime":"2020-12-17 12:17","tags":["story","Hacker News"],"image":null,"imageAlt":null,"__typename":"SocialMediaPost","provider":"Hacker News","thirdPartyId":"25452435","url":"https://news.ycombinator.com/item?id=25452435","originalUrl":"https://github.com/fulldecent/system-bus-radio","imageRemote":"https://avatars2.githubusercontent.com/u/382183?s=400&v=4","video":null,"channel":null,"channelUrl":null,"author":"known","authorUrl":"https://news.ycombinator.com/user?id=known","authorImageRemote":null,"authorImage":null,"authorSlug":null,"score":476,"views":null,"sharedCount":null,"likeCount":null,"sharedContent":null,"parent":{"localize":[{"title":"在没有无线电发射硬件的计算机上发射AM无线电","locale":"zh"},{"title":"在沒有無線電發射硬件的計算機上發射AM無線電","locale":"zh-Hant"}]}},{"id":"HnPost-25453540","excerpt":"","slug":"/hn/25453540","title":"Facebook Takes Out Newspaper Ads to Attack Apple's Strengthening iOS Privacy","date":"December 17, 2020","dateISO":"2020-12-17T12:17:14.385Z","datetime":"2020-12-17 12:17","tags":["story","Hacker News"],"image":null,"imageAlt":null,"__typename":"SocialMediaPost","provider":"Hacker News","thirdPartyId":"25453540","url":"https://news.ycombinator.com/item?id=25453540","originalUrl":"https://daringfireball.net/linked/2020/12/16/facebook-full-page-ad","imageRemote":"https://daringfireball.net/graphics/df-square-1024.png","video":null,"channel":null,"channelUrl":null,"author":"laktak","authorUrl":"https://news.ycombinator.com/user?id=laktak","authorImageRemote":null,"authorImage":null,"authorSlug":null,"score":325,"views":null,"sharedCount":null,"likeCount":null,"sharedContent":null,"parent":{"localize":[{"title":"Facebook拿出报纸广告攻击苹果强化iOS隐私","locale":"zh"},{"title":"Facebook拿出報紙廣告攻擊蘋果強化iOS隱私","locale":"zh-Hant"}]}}]}},"pageContext":{"basePath":"/","pageType":"tag","tag":"story","tagsFilter":{"date":{"gt":"2000-12-25T10:54:58.000Z"}},"filter":{"date":{"gt":"2000-12-25T10:54:58.000Z"},"tags":{"eq":"story"}},"limit":500,"skip":9500,"total":9519,"totalPages":20,"currentPage":20,"maxWidth":1024,"maxHeight":512,"siteMetadata":null,"locale":"zh-Hant","hrefLang":"zh-Hant","originalPath":"/tags/story/page/20","dateFormat":"YYYY-MM-DD"}},
    "staticQueryHashes": ["1239077767","2744905544","3025052997","3280999885"]}