{
    "componentChunkName": "component---node-modules-gatsby-theme-buzzing-src-gatsby-theme-timeline-templates-posts-query-js",
    "path": "/en/page/40",
    "result": {"data":{"site":{"siteMetadata":{"title":"Hacker News 热门","author":"Hacker News","description":"用中文浏览 Hacker News 热门内容 - 中国 Hacker News","keywords":["Hacker News","中国 Hacker News","Hacker News 热门","互联网热门","科技"],"siteUrl":"https://hn.buzzing.cc","telegram":"@buzzingcc","iconUrl":"https://hn.buzzing.cc/avatar.png","defaultSocialImageUrl":null,"social":[{"name":"Hacker News","url":"https://news.ycombinator.com/","external":true},{"name":"Buzzing","url":"https://www.buzzing.cc/","external":true}],"menuLinks":[{"name":"每周精选","url":"/issues","external":null}],"disqus":null,"utterances":null,"localize":[{"title":"Buzzing on Hacker News","description":"See what's buzzing on Hacker News in your native language","keywords":["Hacker News","HN","buzzing"],"locale":"en","social":{"name":null,"url":null,"external":null},"menuLinks":[{"name":"Weekly Selection","url":"/en/issues","external":null}]},{"title":"Hacker News 熱門","description":"用中文瀏覽 Hacker News 熱門內容","keywords":["Hacker News","HN","Hacker News 熱門","互聯網熱門","科技"],"locale":"zh-Hant","social":null,"menuLinks":[{"name":"每週精選","url":"/zh-Hant/issues","external":null}]},{"title":"Hacker News  人気の記事","description":"人気のHacker News記事を日本語で閲覧","keywords":["buzzing","Hacker News "],"locale":"ja","social":null,"menuLinks":[{"name":"毎週の選択","url":"/ja/issues","external":null}]}]}},"tagsGroup":{"group":[{"fieldValue":"ASK HN","totalCount":46},{"fieldValue":"Hacker News","totalCount":1951},{"fieldValue":"Show HN","totalCount":54},{"fieldValue":"story","totalCount":1951}]},"allBlogPost":{"nodes":[{"id":"HnPost-28712350","excerpt":"","slug":"/hn/28712350","title":"Deaf Man Who Couldn't Hear Police Commands Was Tased and Spent 4 Months in Jail","date":"October 01, 2021","dateISO":"2021-10-01T02:16:04.436Z","datetime":"2021-10-01 02:16","tags":["story","Hacker News"],"image":null,"imageAlt":null,"__typename":"SocialMediaPost","provider":"Hacker News","thirdPartyId":"28712350","url":"https://news.ycombinator.com/item?id=28712350","originalUrl":"https://www.npr.org/2021/09/29/1041562502/deaf-man-tased-police-colorado-lawsuit","imageRemote":"https://media.npr.org/assets/img/2021/09/29/brady-mistic---1_wide-855fd9cf37f4de4fdf854ba1e41c0daa3d9ce469.png?s=1400","video":null,"channel":null,"channelUrl":null,"author":"amin","authorUrl":"https://news.ycombinator.com/user?id=amin","authorImageRemote":null,"authorImage":null,"authorSlug":null,"score":258,"views":null,"sharedCount":null,"likeCount":null,"sharedContent":null,"parent":{"localize":[{"title":"警察の指示が聞こえない聴覚障害者がテーザー銃で撃たれ、4ヶ月間刑務所で過ごしました。","locale":"ja"},{"title":"听不到警察指令的聋哑人被电击，在监狱里待了4个月","locale":"zh"},{"title":"聽不到警察指令的聾啞人被電擊，在監獄裏待了4個月","locale":"zh-Hant"}]}}]}},"pageContext":{"basePath":"/","pageType":"home","tagsFilter":{"date":{"gt":"2000-12-25T10:54:58.000Z"}},"filter":{"date":{"gt":"2000-12-25T10:54:58.000Z"}},"limit":50,"skip":1950,"totalPages":40,"total":1951,"currentPage":40,"maxWidth":1024,"maxHeight":512,"siteMetadata":null,"locale":"en","hrefLang":"en-US","originalPath":"/page/40","dateFormat":"MM/DD/YYYY"}},
    "staticQueryHashes": ["1239077767","2744905544","3025052997","3280999885"]}